…
```
## # A tibble: 900 x 5
##      det   occ nsites nsurveys  bias
##    <dbl> <dbl>  <dbl>    <dbl> <dbl>
##  1  0.05  0.05     20        5  298 
##  2  0.05  0.05     20       10  425.
##  3  0.05  0.05     20       20  581.
##  4  0.05  0.05     50        5  640.
##  5  0.05  0.05     50       10  847.
##  6  0.05  0.05     50       20  739.
##  7  0.05  0.05    100        5  914.
##  8  0.05  0.05    100       10  882.
##  9  0.05  0.05    100       20  692.
## 10  0.05  0.15     20        5  213.
## # … with 890 more rows
```
…
